1:
3.6
3.1
3.8
4.4
3.9
3.6
2.8
3.7
3.8
3.5
3.4
3.6
3.7
3.9
2.9
4.3
3.6
4.4
4
3.8
3.1
4.6
3.4
10:
3.3
3.2
1000:
3.5
3.2
2.4
4.5
3.9
3.6
3.5
3.9
3.3
3.2
3.5
3.6
3.4
4.3
4.1
3.2
3.1
3.5
3.4
4
3.5
4.1
2.9
3.3
4.1
3.3
3.6
10000:
4.2
4
10001:
3.6
4.1
4
3.4
4.3
3.4
3.5
3.7
3.9
4.1
3.9
4.2
3.1
4.3
3.5
3.6
4.1
10002:
4.5
4.2
4.5
4.5
10003:
3.2
10004:
4.5
4.2
3.7
4
4.1
3.9
4
4.1
3.8
3.6
3.9
3.6
4.3
3.5
3.7
3.9
4.1
4.1
4.3
3.7
4.1
3.7
3.6
4.3
4.8
3.4
4.1
3.9
4.1
4.4
3.9
10005:
3.6
4
3.4
3.4
3.3
10006:
4.2
4.2
4.3
3.8
10007:
3
3.6
3.1
3
2.5
3.3
3.1
3.3
3.3
3.3
3.2
3.4
3
10008:
4.2
3.9
4.6
2.7
4.4
3.9
3.5
10009:
3.4
3.4
4.4
3.1
3
3.8
1001:
3.9
3.6
3.4
3.3
4
3.9
3.7
3.4
3
3.8
3.7
3.7
3.2
3.8
3.8
3.6
3.9
3.6
3.2
3.5
3.2
3.9
3.5
3
3.4
3.4
3.5
3.5
4.1
4
3.8
4.5
3.4
3.4
3.6
3.6
4
3.1
3.2
3.8
4
3.2
3.9
3.9
3.9
3.6
3.4
3.4
3.1
4.1
3.1
2.8
3
3.8
3.9
4.3
3.4
3.5
3.5
3.4
3.8
3.4
3.2
3.2
3.9
3.2
3.1
3.3
3.9
3.6
3.1
3.4
3.6
3.2
3.9
3.8
2.8
3
3.4
3.6
3.9
3.9
2.9
3.6
3.5
3.3
3.6
4
3.5
3.1
4.2
3.4
3.9
3.9
3.2
3.2
3.4
3.2
3.5
3.5
3.6
3.6
3.2
3.2
3.7
3.5
3.6
3.7
3.7
3
3.3
3.4
3.6
3.3
3.3
3
3.1
3.8
3.6
3.1
3.4
3.5
3.4
3.6
3.4
3.5
3.4
3.9
3.6
3.3
3.5
3.9
3.6
3.4
RMSE: 0.91
