1:
4
4
3
5
5
4
4
4
3
4
5
4
5
4
3
5
4
5
4
5
3
5
5
10010:
4
3
1
1
2
4
1
2
1
3
3
3
3
1
2
3
3
5
3
3
2
2
1
10042:
5
5
4
5
4
5
5
5
5
5
4
3
5
5
3
5
5
5
5
10085:
4
4
4
3
2
4
2
2
2
1
6256:
3
6258:
2
8546:
4
4
4
3
8547:
4
4
3
4
8548:
2
5
1
3
4
3
1
3
2
3
4
1
3
2
4
3
3
1
3
2
1
4
3
3
3
3
4
3
3
8549:
5
4
4
3
5
5
5
1
5
3
4
4
3
4
5
3
4
5
5
4
4
3
3
5
3
5
5
5
9996:
5
5
1
5
5
3
1
3
1
3
3
4
5
4
5
1
2
5
4
9997:
4
4
2
3
9998:
3
4
5
9999:
2
14539:
4
4
5
5
4
4
1
5
2
4
1454:
1
2
5
3
5
4
2
14540:
5
4
3
5
14527:
4
3
4
4
4
4
5
4
5
4
3
4
3
5
3
4
5
5
3
4
3
4
3
5
2
4
3
2
5
5
4
5
3
5
4
2
3
3
2
3
3
4
3
5
3
3
3
3
5
5
4
3
5
4
4
4
5
4
3
3
5
5
3
4
5
3
4
